				Zenonas Jonaitis
Pradiniai duomenys
|-------------+-------+-------+---------+---------+--------+--------|
| Pavadinimas | Šalis | Metai |Spalvotas| Aukstis | Plotis | Kiekis |
|-------------+-------+-------+---------+---------+--------+--------|
|Srena        | LTU   |  1975 | Taip    |     200 |    500 |      5 |
|Zalvaris     | LTU   |     0 | Taip    |     200 |    500 |      5 |
|UNIX         | NE    |     0 | Taip    |     200 |    300 |      5 |
|UNIX         | NE    |  1970 | Taip    |     200 |    300 |      4 |
|UNIX         | NE    |  1970 | Taip    |     200 |    300 |      2 |
|UNIX         | NE    |     0 | Taip    |     200 |    300 |      6 |
|UNIX         | NE    |  1970 | Taip    |     200 |    300 |      1 |
|UNIX         | NE    |     0 | Taip    |     200 |    300 |      5 |
|Srena        | LTU   |  1998 | Taip    |     200 |    500 |      5 |
|Zalvaris     | LTU   |     0 | Taip    |     200 |    500 |      5 |
|-------------+-------+-------+---------+---------+--------+--------|

Daugiau negu vienas
|-------------+-------+-------+---------+---------+--------+--------|
| Pavadinimas | Šalis | Metai |Spalvotas| Aukstis | Plotis | Kiekis |
|-------------+-------+-------+---------+---------+--------+--------|
|                           Sąrašas tuščias                         |
|-------------+-------+-------+---------+---------+--------+--------|


				Petras Petraitis
Pradiniai duomenys
|-------------+-------+-------+---------+---------+--------+--------|
| Pavadinimas | Šalis | Metai |Spalvotas| Aukstis | Plotis | Kiekis |
|-------------+-------+-------+---------+---------+--------+--------|
|xcv          | NE    |  2005 | Taip    |    79.4 |   17.4 |      1 |
|wrt          | LTU   |  1998 | Taip    |    50.7 |   90.6 |      5 |
|asdd         | NE    |  1995 | Ne      |    80.5 |   70.2 |      1 |
|-------------+-------+-------+---------+---------+--------+--------|

Daugiau negu vienas
|-------------+-------+-------+---------+---------+--------+--------|
| Pavadinimas | Šalis | Metai |Spalvotas| Aukstis | Plotis | Kiekis |
|-------------+-------+-------+---------+---------+--------+--------|
|                           Sąrašas tuščias                         |
|-------------+-------+-------+---------+---------+--------+--------|

				Zenonas Jonaitis
Pradiniai duomenys
|-------------+-------+-------+---------+---------+--------+--------|
| Pavadinimas | Šalis | Metai |Spalvotas| Aukstis | Plotis | Kiekis |
|-------------+-------+-------+---------+---------+--------+--------|
|Srena        | LTU   |  1975 | Taip    |     200 |    500 |      5 |
|Zalvaris     | LTU   |     0 | Taip    |     200 |    500 |      5 |
|UNIX         | NE    |     0 | Taip    |     200 |    300 |      5 |
|UNIX         | NE    |  1970 | Taip    |     200 |    300 |      4 |
|UNIX         | NE    |  1970 | Taip    |     200 |    300 |      2 |
|UNIX         | NE    |     0 | Taip    |     200 |    300 |      6 |
|UNIX         | NE    |  1970 | Taip    |     200 |    300 |      1 |
|UNIX         | NE    |     0 | Taip    |     200 |    300 |      5 |
|Srena        | LTU   |  1998 | Taip    |     200 |    500 |      5 |
|Zalvaris     | LTU   |     0 | Taip    |     200 |    500 |      5 |
|-------------+-------+-------+---------+---------+--------+--------|

Daugiau negu vienas
|-------------+-------+-------+---------+---------+--------+--------|
| Pavadinimas | Šalis | Metai |Spalvotas| Aukstis | Plotis | Kiekis |
|-------------+-------+-------+---------+---------+--------+--------|
|Srena        | LTU   |  1975 | Taip    |     200 |    500 |      5 |
|Zalvaris     | LTU   |     0 | Taip    |     200 |    500 |      5 |
|UNIX         | NE    |     0 | Taip    |     200 |    300 |      5 |
|UNIX         | NE    |  1970 | Taip    |     200 |    300 |      4 |
|UNIX         | NE    |  1970 | Taip    |     200 |    300 |      2 |
|UNIX         | NE    |     0 | Taip    |     200 |    300 |      6 |
|UNIX         | NE    |     0 | Taip    |     200 |    300 |      5 |
|Srena        | LTU   |  1998 | Taip    |     200 |    500 |      5 |
|Zalvaris     | LTU   |     0 | Taip    |     200 |    500 |      5 |
|-------------+-------+-------+---------+---------+--------+--------|


				Petras Petraitis
Pradiniai duomenys
|-------------+-------+-------+---------+---------+--------+--------|
| Pavadinimas | Šalis | Metai |Spalvotas| Aukstis | Plotis | Kiekis |
|-------------+-------+-------+---------+---------+--------+--------|
|xcv          | NE    |  2005 | Taip    |    79.4 |   17.4 |      1 |
|wrt          | LTU   |  1998 | Taip    |    50.7 |   90.6 |      5 |
|asdd         | NE    |  1995 | Ne      |    80.5 |   70.2 |      1 |
|-------------+-------+-------+---------+---------+--------+--------|

Daugiau negu vienas
|-------------+-------+-------+---------+---------+--------+--------|
| Pavadinimas | Šalis | Metai |Spalvotas| Aukstis | Plotis | Kiekis |
|-------------+-------+-------+---------+---------+--------+--------|
|wrt          | LTU   |  1998 | Taip    |    50.7 |   90.6 |      5 |
|-------------+-------+-------+---------+---------+--------+--------|

				Zenonas Jonaitis
Pradiniai duomenys
|-------------+-------+-------+---------+---------+--------+--------|
| Pavadinimas | Šalis | Metai |Spalvotas| Aukstis | Plotis | Kiekis |
|-------------+-------+-------+---------+---------+--------+--------|
|Srena        | LTU   |  1975 | Taip    |     200 |    500 |      5 |
|Zalvaris     | LTU   |     0 | Taip    |     200 |    500 |      5 |
|UNIX         | NE    |     0 | Taip    |     200 |    300 |      5 |
|UNIX         | NE    |  1970 | Taip    |     200 |    300 |      4 |
|UNIX         | NE    |  1970 | Taip    |     200 |    300 |      2 |
|UNIX         | NE    |     0 | Taip    |     200 |    300 |      6 |
|UNIX         | NE    |  1970 | Taip    |     200 |    300 |      1 |
|UNIX         | NE    |     0 | Taip    |     200 |    300 |      5 |
|Srena        | LTU   |  1998 | Taip    |     200 |    500 |      5 |
|Zalvaris     | LTU   |     0 | Taip    |     200 |    500 |      5 |
|-------------+-------+-------+---------+---------+--------+--------|

Daugiau negu vienas
|-------------+-------+-------+---------+---------+--------+--------|
| Pavadinimas | Šalis | Metai |Spalvotas| Aukstis | Plotis | Kiekis |
|-------------+-------+-------+---------+---------+--------+--------|
|Zalvaris     | LTU   |     0 | Taip    |     200 |    500 |      5 |
|UNIX         | NE    |     0 | Taip    |     200 |    300 |      5 |
|UNIX         | NE    |     0 | Taip    |     200 |    300 |      5 |
|Zalvaris     | LTU   |     0 | Taip    |     200 |    500 |      5 |
|UNIX         | NE    |     0 | Taip    |     200 |    300 |      6 |
|UNIX         | NE    |  1970 | Taip    |     200 |    300 |      2 |
|UNIX         | NE    |  1970 | Taip    |     200 |    300 |      4 |
|Srena        | LTU   |  1975 | Taip    |     200 |    500 |      5 |
|Srena        | LTU   |  1998 | Taip    |     200 |    500 |      5 |
|-------------+-------+-------+---------+---------+--------+--------|


				Petras Petraitis
Pradiniai duomenys
|-------------+-------+-------+---------+---------+--------+--------|
| Pavadinimas | Šalis | Metai |Spalvotas| Aukstis | Plotis | Kiekis |
|-------------+-------+-------+---------+---------+--------+--------|
|xcv          | NE    |  2005 | Taip    |    79.4 |   17.4 |      1 |
|wrt          | LTU   |  1998 | Taip    |    50.7 |   90.6 |      5 |
|asdd         | NE    |  1995 | Ne      |    80.5 |   70.2 |      1 |
|-------------+-------+-------+---------+---------+--------+--------|

Daugiau negu vienas
|-------------+-------+-------+---------+---------+--------+--------|
| Pavadinimas | Šalis | Metai |Spalvotas| Aukstis | Plotis | Kiekis |
|-------------+-------+-------+---------+---------+--------+--------|
|wrt          | LTU   |  1998 | Taip    |    50.7 |   90.6 |      5 |
|-------------+-------+-------+---------+---------+--------+--------|

				Zenonas Jonaitis
Pradiniai duomenys
|-------------+-------+-------+---------+---------+--------+--------|
| Pavadinimas | Šalis | Metai |Spalvotas| Aukstis | Plotis | Kiekis |
|-------------+-------+-------+---------+---------+--------+--------|
|Srena        | LTU   |  1975 | Taip    |     200 |    500 |      5 |
|Zalvaris     | LTU   |     0 | Taip    |     200 |    500 |      5 |
|UNIX         | NE    |     0 | Taip    |     200 |    300 |      5 |
|UNIX         | NE    |  1970 | Taip    |     200 |    300 |      4 |
|UNIX         | NE    |  1970 | Taip    |     200 |    300 |      2 |
|UNIX         | NE    |     0 | Taip    |     200 |    300 |      6 |
|UNIX         | NE    |  1970 | Taip    |     200 |    300 |      1 |
|UNIX         | NE    |     0 | Taip    |     200 |    300 |      5 |
|Srena        | LTU   |  1998 | Taip    |     200 |    500 |      5 |
|Zalvaris     | LTU   |     0 | Taip    |     200 |    500 |      5 |
|-------------+-------+-------+---------+---------+--------+--------|

Daugiau negu vienas
|-------------+-------+-------+---------+---------+--------+--------|
| Pavadinimas | Šalis | Metai |Spalvotas| Aukstis | Plotis | Kiekis |
|-------------+-------+-------+---------+---------+--------+--------|
|UNIX         | NE    |  1970 | Taip    |     200 |    300 |      2 |
|UNIX         | NE    |  1970 | Taip    |     200 |    300 |      4 |
|Srena        | LTU   |  1975 | Taip    |     200 |    500 |      5 |
|Srena        | LTU   |  1998 | Taip    |     200 |    500 |      5 |
|-------------+-------+-------+---------+---------+--------+--------|


				Petras Petraitis
Pradiniai duomenys
|-------------+-------+-------+---------+---------+--------+--------|
| Pavadinimas | Šalis | Metai |Spalvotas| Aukstis | Plotis | Kiekis |
|-------------+-------+-------+---------+---------+--------+--------|
|xcv          | NE    |  2005 | Taip    |    79.4 |   17.4 |      1 |
|wrt          | LTU   |  1998 | Taip    |    50.7 |   90.6 |      5 |
|asdd         | NE    |  1995 | Ne      |    80.5 |   70.2 |      1 |
|-------------+-------+-------+---------+---------+--------+--------|

Daugiau negu vienas
|-------------+-------+-------+---------+---------+--------+--------|
| Pavadinimas | Šalis | Metai |Spalvotas| Aukstis | Plotis | Kiekis |
|-------------+-------+-------+---------+---------+--------+--------|
|wrt          | LTU   |  1998 | Taip    |    50.7 |   90.6 |      5 |
|-------------+-------+-------+---------+---------+--------+--------|

