﻿Mattie Wilkinson 1995-05-01 183 PF KTU1 false
Dean Cornish 1973-03-14 175 PF KTU1 true
Jorgie Novak 1986-06-11 195 PF KTU1 false
Tom Scoot 1990-06-11 195 PF KTU1 false
Corey Haigh 1975-07-02 200 SG VU1 false