Zenonas Jonaitis
	Zalvaris LTU 0 S 200 500 5
	Srena LTU 1998 S 200 500 5
	UNIX NE 1970 S 200 300 1

Petras Petraitis
	Zalvaris LTU 0 S 200 500 5
	Laisvė LTU 1998 S 200 500 5
	Power NE 0 S 200 300 1
	Imagination EN 1995 N 200 300 1